[
	{
	  "buy_or_sell": "Buy",
	  "base_currency_amount": 200,
	  "base_currency_code": "EUR",
	  "contra_currency_amount": 219.97,
	  "contra_currency_code": "USD",
	  "exchange_rate": 1.0987,
	  "exchange_rate_conversion_rule": "Direct",
	  "exchange_rate_precision": 5,
	  "receiving_method": "FXTrade"
	}
]